Fri Sep 11 23:45:41 CEST 20?0
Preloading tcmalloc_minimal.so
Athena               INFO including file "AthenaCommon/Preparation.py"
Athena               INFO including file "AthenaCommon/Atlas.UnixStandardJob.py"
Athena               INFO executing ROOT6Setup
Athena               INFO including file "AthenaCommon/Execution.py"
Athena               INFO including file "AthenaPoolExampleAlgorithms/AthenaPoolExample_WriteJobOptions.py"
Py:ConfigurableDb    INFO Read module info for 5568 configurables from 4 genConfDb files
Py:ConfigurableDb    INFO No duplicates have been found: that's good !
Athena               INFO including file "AthenaCommon/runbatch.py"
ApplicationMgr    SUCCESS 
====================================================================================================================================
                                                   Welcome to ApplicationMgr (GaudiCoreSvc v34r0)
                                          running on aibuild028.cern.ch on Fri Sep 11 23:45:54 20?0
====================================================================================================================================
ApplicationMgr       INFO Application Manager Configured successfully
AthDictLoaderSvc     INFO in initialize...
AthDictLoaderSvc     INFO acquired Dso-registry
ClassIDSvc           INFO  getRegistryEntries: read 3308 CLIDRegistry entries for module ALL
AthenaEventLoopMgr   INFO Initializing AthenaEventLoopMgr - package version AthenaServices-00-00-00
ClassIDSvc           INFO  getRegistryEntries: read 722 CLIDRegistry entries for module ALL
ClassIDSvc           INFO  getRegistryEntries: read 591 CLIDRegistry entries for module ALL
ClassIDSvc           INFO  getRegistryEntries: read 350 CLIDRegistry entries for module ALL
xAODMaker::Even...   INFO Initializing - Package version: xAODEventInfoCnv-00-00-00
xAODMaker::Even...   INFO Initializing - Package version: xAODEventInfoCnv-00-00-00
MetaDataSvc          INFO Initializing MetaDataSvc - package version AthenaServices-00-00-00
AthenaPoolCnvSvc    DEBUG Property update for OutputLevel : new value = 2
PoolSvc             DEBUG Property update for OutputLevel : new value = 2
PoolSvc             DEBUG Service base class initialized successfully
PoolSvc              INFO io_register[PoolSvc](xmlcatalog_file:Catalog1.xml) [ok]
PoolSvc              INFO Set connectionsvc retry/timeout/IDLE timeout to  'ConnectionRetrialPeriod':300/ 'ConnectionRetrialTimeOut':3600/ 'ConnectionTimeOut':5 seconds with connection cleanup disabled
PoolSvc              INFO Frontier compression level set to 5
DBReplicaSvc         INFO Frontier server at (serverurl=http://atlasfrontier-local.cern.ch:8000/atlr)(serverurl=http://atlasfrontier-ai.cern.ch:8000/atlr)(serverurl=http://ccfrontier.in2p3.fr:23128/ccin2p3-AtlasFrontier)(proxyurl=http://ca-proxy-atlas.cern.ch:3128)(proxyurl=http://ca-proxy-meyrin.cern.ch:3128)(proxyurl=http://ca-proxy.cern.ch:3128)(proxyurl=http://atlasbpfrontier.cern.ch:3127)(proxyurl=http://atlasbpfrontier.fnal.gov:3127) will be considered for COOL data
DBReplicaSvc         INFO Read replica configuration from /cvmfs/atlas-nightlies.cern.ch/repo/sw/master_Athena_x86_64-centos7-gcc8-opt/20?0-09-10T2101/Athena/22.0.18/InstallArea/x86_64-centos7-gcc8-opt/share/dbreplica.config
DBReplicaSvc         INFO Total of 10 servers found for host aibuild028.cern.ch [ATLF ATLAS_COOLPROD atlas_dd ATLAS_CONFIG INT8R INTR ATONR_COOL ATONR_CONF DEVDB11 ATLF ]
PoolSvc              INFO Successfully setup replica sorting algorithm
PoolSvc             DEBUG OutputLevel is 2
PoolSvc              INFO Setting up APR FileCatalog and Streams
PoolSvc              INFO POOL WriteCatalog is xmlcatalog_file:Catalog1.xml
DbSession            INFO     Open     DbSession    
Domain[ROOT_All]     INFO >   Access   DbDomain     READ      [ROOT_All] 
MetaDataSvc          INFO Found MetaDataTools = PublicToolHandleArray([])
OutputStreamSeq...   INFO Initializing OutputStreamSequencerSvc - package version AthenaServices-00-00-00
xAODMaker::Even...WARNING Beam conditions service not available
xAODMaker::Even...WARNING Will not fill beam spot information into xAOD::EventInfo
ClassIDSvc           INFO  getRegistryEntries: read 1151 CLIDRegistry entries for module ALL
WriteData           DEBUG Property update for OutputLevel : new value = 2
WriteData            INFO in initialize()
WriteData           DEBUG input handles: 0
WriteData           DEBUG output handles: 2
WriteData           DEBUG Data Deps for WriteData
  + OUTPUT  ( 'ExampleHitContainer' , 'StoreGateSvc+MyHits' ) 
  + OUTPUT  ( 'ExampleHitContainer' , 'StoreGateSvc+PetersHits' ) 
WriteTag             INFO in initialize()
MagicWriteTag        INFO in initialize()
Stream1             DEBUG Property update for OutputLevel : new value = 2
Stream1.Stream1...  DEBUG Property update for OutputLevel : new value = 2
Stream1.Stream1...  DEBUG Property update for OutputLevel : new value = 2
Stream1.Stream1...  DEBUG Property update for OutputLevel : new value = 2
Stream1.Stream1...  DEBUG Property update for OutputLevel : new value = 2
Stream1             DEBUG In initialize 
Stream1             DEBUG Found IDecisionSvc.
DecisionSvc          INFO Inserting stream: Stream1 with no Algs
Stream1             DEBUG End initialize 
Stream1             DEBUG In initialize
Stream1             DEBUG Found StoreGateSvc store.
Stream1             DEBUG Found MetaDataStore store.
Stream1.Stream1...  DEBUG Property update for OutputLevel : new value = 2
Stream1.Stream1...   INFO Initializing Stream1.Stream1Tool - package version AthenaServices-00-00-00
Stream1.Stream1...  DEBUG Property update for OutputLevel : new value = 2
Stream1.Stream1...   INFO Initializing Stream1.Stream1_MakeEventStreamInfo - package version OutputStreamAthenaPool-00-00-00
Stream1.Thinnin...  DEBUG Property update for OutputLevel : new value = 2
Stream1              INFO Found HelperTools = PrivateToolHandleArray(['MakeEventStreamInfo/Stream1_MakeEventStreamInfo','Athena::ThinningCacheTool/ThinningCacheTool_Stream1'])
Stream1              INFO Data output: SimplePoolFile1.root
Stream1              INFO I/O reinitialization...
Stream1.Stream1...  DEBUG Property update for OutputLevel : new value = 2
Stream1             DEBUG End initialize
Stream1             DEBUG input handles: 0
Stream1             DEBUG output handles: 2
Stream1             DEBUG Registering all Tools in ToolHandleArray HelperTools
Stream1             DEBUG Adding private ToolHandle tool Stream1.Stream1_MakeEventStreamInfo (MakeEventStreamInfo)
Stream1             DEBUG Adding private ToolHandle tool Stream1.ThinningCacheTool_Stream1 (Athena::ThinningCacheTool)
Stream1             DEBUG Adding private ToolHandle tool Stream1.Stream1Tool (AthenaOutputStreamTool)
Stream1             DEBUG Data Deps for Stream1
  + INPUT   ( 'AthenaAttributeList' , 'StoreGateSvc+MagicTag' ) 
  + OUTPUT  ( 'DataHeader' , 'StoreGateSvc+Stream1' ) 
  + OUTPUT  ( 'SG::CompressionInfo' , 'StoreGateSvc+CompressionInfo_Stream1' ) 
  + OUTPUT  ( 'SG::SelectionVetoes' , 'StoreGateSvc+SelectionVetoes_Stream1' ) 
Stream2             DEBUG Property update for OutputLevel : new value = 2
Stream2.Stream2...  DEBUG Property update for OutputLevel : new value = 2
Stream2.Stream2...  DEBUG Property update for OutputLevel : new value = 2
Stream2.Stream2...  DEBUG Property update for OutputLevel : new value = 2
Stream2.Stream2...  DEBUG Property update for OutputLevel : new value = 2
Stream2             DEBUG In initialize 
Stream2             DEBUG Found IDecisionSvc.
DecisionSvc          INFO Inserting stream: Stream2 with no Algs
Stream2             DEBUG End initialize 
Stream2             DEBUG In initialize
Stream2             DEBUG Found StoreGateSvc store.
Stream2             DEBUG Found MetaDataStore store.
Stream2.Stream2...  DEBUG Property update for OutputLevel : new value = 2
Stream2.Stream2...   INFO Initializing Stream2.Stream2Tool - package version AthenaServices-00-00-00
Stream2.Stream2...  DEBUG Property update for OutputLevel : new value = 2
Stream2.Stream2...   INFO Initializing Stream2.Stream2_MakeEventStreamInfo - package version OutputStreamAthenaPool-00-00-00
Stream2.Thinnin...  DEBUG Property update for OutputLevel : new value = 2
Stream2              INFO Found HelperTools = PrivateToolHandleArray(['MakeEventStreamInfo/Stream2_MakeEventStreamInfo','Athena::ThinningCacheTool/ThinningCacheTool_Stream2'])
Stream2              INFO Data output: SimplePoolFile2.root
Stream2              INFO I/O reinitialization...
Stream2.Stream2...  DEBUG Property update for OutputLevel : new value = 2
Stream2             DEBUG End initialize
Stream2             DEBUG input handles: 0
Stream2             DEBUG output handles: 2
Stream2             DEBUG Registering all Tools in ToolHandleArray HelperTools
Stream2             DEBUG Adding private ToolHandle tool Stream2.Stream2_MakeEventStreamInfo (MakeEventStreamInfo)
Stream2             DEBUG Adding private ToolHandle tool Stream2.ThinningCacheTool_Stream2 (Athena::ThinningCacheTool)
Stream2             DEBUG Adding private ToolHandle tool Stream2.Stream2Tool (AthenaOutputStreamTool)
Stream2             DEBUG Data Deps for Stream2
  + INPUT   ( 'AthenaAttributeList' , 'StoreGateSvc+RunEventTag' ) 
  + OUTPUT  ( 'DataHeader' , 'StoreGateSvc+Stream2' ) 
  + OUTPUT  ( 'SG::CompressionInfo' , 'StoreGateSvc+CompressionInfo_Stream2' ) 
  + OUTPUT  ( 'SG::SelectionVetoes' , 'StoreGateSvc+SelectionVetoes_Stream2' ) 
DecisionSvc          INFO Inserting stream: Stream3 with no Algs
Stream3.Stream3...   INFO Initializing Stream3.Stream3Tool - package version AthenaServices-00-00-00
Stream3.Stream3...   INFO Initializing Stream3.Stream3_MakeEventStreamInfo - package version OutputStreamAthenaPool-00-00-00
Stream3              INFO Found HelperTools = PrivateToolHandleArray(['MakeEventStreamInfo/Stream3_MakeEventStreamInfo','Athena::ThinningCacheTool/ThinningCacheTool_Stream3'])
Stream3              INFO Data output: EmptyPoolFile.root
Stream3              INFO I/O reinitialization...
EventSelector        INFO  Enter McEventSelector Initialization 
AthenaEventLoopMgr   INFO Setup EventSelector service EventSelector
ApplicationMgr       INFO Application Manager Initialized successfully
ApplicationMgr       INFO Application Manager Started successfully
EventPersistenc...   INFO Added successfully Conversion service:McCnvSvc
AthenaEventLoopMgr   INFO   ===>>>  start of run 1    <<<===
AthenaEventLoopMgr   INFO   ===>>>  start processing event #0, run #1 0 events processed so far  <<<===
WriteData           DEBUG in execute()
WriteData            INFO EventInfo event: 0  run: 1
WriteData            INFO registered all data
WriteTag             INFO EventInfo event: 0  run: 1
WriteTag             INFO registered all data
MagicWriteTag        INFO EventInfo event: 0  run: 1
MagicWriteTag        INFO registered all data
EventInfoTagBui...   INFO No input attribute list
ClassIDSvc           INFO  getRegistryEntries: read 949 CLIDRegistry entries for module ALL
Stream1             DEBUG addItemObjects(2101,"*") called
Stream1             DEBUG            Key:*
Stream1             DEBUG      Comp Attr 0 with 7 mantissa bits.
Stream1             DEBUG      Comp Attr 0 with 15 mantissa bits.
Stream1             DEBUG  Added object 2101,"McEventInfo"
Stream1             DEBUG addItemObjects(9102,"MyHits") called
Stream1             DEBUG            Key:MyHits
Stream1             DEBUG      Comp Attr 0 with 7 mantissa bits.
Stream1             DEBUG      Comp Attr 0 with 15 mantissa bits.
Stream1             DEBUG  Added object 9102,"MyHits"
Stream1             DEBUG addItemObjects(9102,"PetersHits") called
Stream1             DEBUG            Key:PetersHits
Stream1             DEBUG      Comp Attr 0 with 7 mantissa bits.
Stream1             DEBUG      Comp Attr 0 with 15 mantissa bits.
Stream1             DEBUG  No object matching 9102,"PetersHits" found
Stream1             DEBUG  Collected objects:
Stream1             DEBUG  Object/count: EventInfo_McEventInfo, 1
Stream1             DEBUG  Object/count: ExampleHitContainer_MyHits, 1
DbSession            INFO     Open     DbSession    
Domain[ROOT_All]     INFO >   Access   DbDomain     UPDATE    [ROOT_All] 
AthenaPoolCnvSvc    DEBUG setAttribute TREE_MAX_SIZE to 1099511627776L
AthenaPoolCnvSvc    DEBUG setAttribute DEFAULT_SPLITLEVEL to 0
AthenaPoolCnvSvc    DEBUG setAttribute STREAM_MEMBER_WISE to 1
AthenaPoolCnvSvc    DEBUG setAttribute DEFAULT_BUFFERSIZE to 32000
PersistencySvc:...  DEBUG lookupPFN: SimplePoolFile1.root returned FID: '' tech=
PersistencySvc:...  DEBUG registered PFN: SimplePoolFile1.root with FID:????
Domain[ROOT_All]     INFO ->  Access   DbDatabase   CREATE    [ROOT_All] ????
Domain[ROOT_All]     INFO                           SimplePoolFile1.root
SimplePoolFile1...  DEBUG --> Access   DbContainer  CREATE    [ROOT_All] ##Shapes
##Shapes            DEBUG Opening
##Shapes            DEBUG    attributes# = 1
##Shapes            DEBUG Opened container ##Shapes of type ROOT_Tree
##Shapes            DEBUG No objects passing selection criteria... Container has 0 Entries in total.
SimplePoolFile1...  DEBUG --> Access   DbContainer  CREATE    [ROOT_All] ##Links
##Links             DEBUG Opening
##Links             DEBUG    attributes# = 1
##Links             DEBUG Opened container ##Links of type ROOT_Tree
##Links             DEBUG No objects passing selection criteria... Container has 0 Entries in total.
SimplePoolFile1...  DEBUG --> Access   DbContainer  CREATE    [ROOT_All] ##Params
##Params            DEBUG Opening
##Params            DEBUG    attributes# = 1
##Params            DEBUG Opened container ##Params of type ROOT_Tree
SimplePoolFile1...  DEBUG --->Adding Assoc :????/##Params [200]  (2 , ffffffff)
SimplePoolFile1...  DEBUG ---->ClassID:????
##Params            DEBUG No objects passing selection criteria... Container has 0 Entries in total.
AthenaPoolCnvSvc    DEBUG setAttribute CONTAINER_SPLITLEVEL to 99 for db: SimplePoolFile1.root and cont: TTree=POOLContainerForm(DataHeaderForm)
Stream1             DEBUG connectOutput done for SimplePoolFile1.root
StorageSvc           INFO Building shape according to reflection information using shape ID for:
StorageSvc           INFO EventInfo_p4 [????]
SimplePoolFile1...  DEBUG --> Access   DbContainer  CREA/UPDA [ROOT_Tree] CollectionTree(EventInfo_p4/McEventInfo)
CollectionTree(...  DEBUG Opening
CollectionTree(...  DEBUG    attributes# = 1
CollectionTree(...  DEBUG Branch container 'EventInfo_p4_McEventInfo'
CollectionTree(...  DEBUG Opened container CollectionTree(EventInfo_p4/McEventInfo) of type ROOT_Tree
SimplePoolFile1...  DEBUG --->Adding Assoc :????/CollectionTree(EventInfo_p4/McEventInfo) [20?]  (3 , ffffffff)
SimplePoolFile1...  DEBUG ---->ClassID:????
SimplePoolFile1...  DEBUG --->Adding Shape[0 , ????]:  [1 Column(s)] 
SimplePoolFile1...  DEBUG ---->Class:EventInfo_p4
SimplePoolFile1...  DEBUG ---->[0]:EventInfo_p4 Typ:EventInfo_p4 [21] Size:0 Offset:0 #Elements:1
StorageSvc           INFO Building shape according to reflection information using shape ID for:
StorageSvc           INFO ExampleHitContainer_p1 [????]
SimplePoolFile1...  DEBUG --> Access   DbContainer  CREA/UPDA [ROOT_Tree] CollectionTree(ExampleHitContainer_p1/MyHits)
CollectionTree(...  DEBUG Opening
CollectionTree(...  DEBUG    attributes# = 1
CollectionTree(...  DEBUG Branch container 'ExampleHitContainer_p1_MyHits'
CollectionTree(...  DEBUG Opened container CollectionTree(ExampleHitContainer_p1/MyHits) of type ROOT_Tree
SimplePoolFile1...  DEBUG --->Adding Assoc :????/CollectionTree(ExampleHitContainer_p1/MyHits) [20?]  (4 , ffffffff)
SimplePoolFile1...  DEBUG ---->ClassID:????
SimplePoolFile1...  DEBUG --->Adding Shape[1 , ????]:  [1 Column(s)] 
SimplePoolFile1...  DEBUG ---->Class:ExampleHitContainer_p1
SimplePoolFile1...  DEBUG ---->[0]:ExampleHitContainer_p1 Typ:ExampleHitContainer_p1 [21] Size:0 Offset:0 #Elements:1
StorageSvc           INFO Building shape according to reflection information using shape ID for:
StorageSvc           INFO DataHeader_p6 [????]
SimplePoolFile1...  DEBUG --> Access   DbContainer  CREA/UPDA [ROOT_Tree] POOLContainer(DataHeader)
POOLContainer(D...  DEBUG Opening
POOLContainer(D...  DEBUG    attributes# = 1
POOLContainer(D...  DEBUG Branch container 'DataHeader'
POOLContainer(D...  DEBUG Opened container POOLContainer(DataHeader) of type ROOT_Tree
SimplePoolFile1...  DEBUG --->Adding Assoc :????/POOLContainer(DataHeader) [20?]  (5 , ffffffff)
SimplePoolFile1...  DEBUG ---->ClassID:????
SimplePoolFile1...  DEBUG --->Adding Shape[2 , ????]:  [1 Column(s)] 
SimplePoolFile1...  DEBUG ---->Class:DataHeader_p6
SimplePoolFile1...  DEBUG ---->[0]:DataHeader_p6 Typ:DataHeader_p6 [21] Size:0 Offset:0 #Elements:1
StorageSvc           INFO Building shape according to reflection information using shape ID for:
StorageSvc           INFO DataHeaderForm_p6 [????]
SimplePoolFile1...  DEBUG --> Access   DbContainer  CREA/UPDA [ROOT_Tree] POOLContainerForm(DataHeaderForm)
POOLContainerFo...  DEBUG Opening
POOLContainerFo...  DEBUG    attributes# = 1
POOLContainerFo...  DEBUG Branch container 'DataHeaderForm'
POOLContainerFo...  DEBUG Opened container POOLContainerForm(DataHeaderForm) of type ROOT_Tree
SimplePoolFile1...  DEBUG --->Adding Assoc :????/POOLContainerForm(DataHeaderForm) [20?]  (6 , ffffffff)
SimplePoolFile1...  DEBUG ---->ClassID:????
SimplePoolFile1...  DEBUG --->Adding Shape[3 , ????]:  [1 Column(s)] 
SimplePoolFile1...  DEBUG ---->Class:DataHeaderForm_p6
SimplePoolFile1...  DEBUG ---->[0]:DataHeaderForm_p6 Typ:DataHeaderForm_p6 [21] Size:0 Offset:0 #Elements:1
StorageSvc           INFO Building shape according to reflection information using shape ID for:
StorageSvc           INFO Token [????]
SimplePoolFile1...  DEBUG --> Access   DbContainer  CREA/UPDA [ROOT_Tree] POOLCollectionTree(Token)
POOLCollectionT...  DEBUG Opening
POOLCollectionT...  DEBUG    attributes# = 1
POOLCollectionT...  DEBUG Branch container 'Token'
POOLCollectionT...  DEBUG Opened container POOLCollectionTree(Token) of type ROOT_Tree
SimplePoolFile1...  DEBUG --->Adding Assoc :????/POOLCollectionTree(Token) [20?]  (7 , ffffffff)
SimplePoolFile1...  DEBUG ---->ClassID:????
SimplePoolFile1...  DEBUG --->Adding Shape[4 , ????]:  [1 Column(s)] 
SimplePoolFile1...  DEBUG ---->Class:Token
SimplePoolFile1...  DEBUG ---->[0]:Token Typ:Token [18] Size:0 Offset:0 #Elements:1
StorageSvc           INFO Building shape according to reflection information using shape ID for:
StorageSvc           INFO unsigned int [????]
SimplePoolFile1...  DEBUG --> Access   DbContainer  CREA/UPDA [ROOT_Tree] POOLCollectionTree(RunNumber)
POOLCollectionT...  DEBUG Opening
POOLCollectionT...  DEBUG    attributes# = 1
POOLCollectionT...  DEBUG Branch container 'RunNumber'
POOLCollectionT...  DEBUG Opened container POOLCollectionTree(RunNumber) of type ROOT_Tree
SimplePoolFile1...  DEBUG --->Adding Assoc :????/POOLCollectionTree(RunNumber) [20?]  (8 , ffffffff)
SimplePoolFile1...  DEBUG ---->ClassID:????
SimplePoolFile1...  DEBUG --->Adding Shape[5 , ????]:  [1 Column(s)] 
SimplePoolFile1...  DEBUG ---->Class:unsigned int
SimplePoolFile1...  DEBUG ---->[0]:unsigned int Typ:unsigned int [3] Size:0 Offset:0 #Elements:1
SimplePoolFile1...  DEBUG --> Access   DbContainer  CREA/UPDA [ROOT_Tree] POOLCollectionTree(EventNumber)
POOLCollectionT...  DEBUG Opening
POOLCollectionT...  DEBUG    attributes# = 1
POOLCollectionT...  DEBUG Branch container 'EventNumber'
POOLCollectionT...  DEBUG Opened container POOLCollectionTree(EventNumber) of type ROOT_Tree
SimplePoolFile1...  DEBUG --->Adding Assoc :????/POOLCollectionTree(EventNumber) [20?]  (9 , ffffffff)
SimplePoolFile1...  DEBUG ---->ClassID:????
SimplePoolFile1...  DEBUG --> Access   DbContainer  CREA/UPDA [ROOT_Tree] POOLCollectionTree(MagicNumber)
POOLCollectionT...  DEBUG Opening
POOLCollectionT...  DEBUG    attributes# = 1
POOLCollectionT...  DEBUG Branch container 'MagicNumber'
POOLCollectionT...  DEBUG Opened container POOLCollectionTree(MagicNumber) of type ROOT_Tree
SimplePoolFile1...  DEBUG --->Adding Assoc :????/POOLCollectionTree(MagicNumber) [20?]  (a , ffffffff)
SimplePoolFile1...  DEBUG ---->ClassID:????
AthenaPoolCnvSvc    DEBUG setAttribute BRANCH_BASKET_SIZE to 256000 for db: SimplePoolFile1.root and cont: POOLContainer(DataHeader)
AthenaPoolCnvSvc    DEBUG setAttribute BRANCH_BASKET_SIZE to 1024000 for db: SimplePoolFile1.root and cont: POOLContainerForm(DataHeaderForm)
ClassIDSvc           INFO  getRegistryEntries: read 83 CLIDRegistry entries for module ALL
Stream2             DEBUG addItemObjects(2101,"*") called
Stream2             DEBUG            Key:*
Stream2             DEBUG      Comp Attr 0 with 7 mantissa bits.
Stream2             DEBUG      Comp Attr 0 with 15 mantissa bits.
Stream2             DEBUG  Added object 2101,"McEventInfo"
Stream2             DEBUG addItemObjects(9102,"*") called
Stream2             DEBUG            Key:*
Stream2             DEBUG      Comp Attr 0 with 7 mantissa bits.
Stream2             DEBUG      Comp Attr 0 with 15 mantissa bits.
Stream2             DEBUG  Collected objects:
Stream2             DEBUG  Object/count: EventInfo_McEventInfo, 1
DbSession            INFO     Open     DbSession    
Domain[ROOT_All]     INFO >   Access   DbDomain     UPDATE    [ROOT_All] 
AthenaPoolCnvSvc    DEBUG setAttribute TREE_MAX_SIZE to 1099511627776L
AthenaPoolCnvSvc    DEBUG setAttribute DEFAULT_SPLITLEVEL to 0
AthenaPoolCnvSvc    DEBUG setAttribute STREAM_MEMBER_WISE to 1
AthenaPoolCnvSvc    DEBUG setAttribute DEFAULT_BUFFERSIZE to 32000
PersistencySvc:...  DEBUG lookupPFN: SimplePoolFile2.root returned FID: '' tech=
PersistencySvc:...  DEBUG registered PFN: SimplePoolFile2.root with FID:????
Domain[ROOT_All]     INFO ->  Access   DbDatabase   CREATE    [ROOT_All] ????
Domain[ROOT_All]     INFO                           SimplePoolFile2.root
SimplePoolFile2...  DEBUG --> Access   DbContainer  CREATE    [ROOT_All] ##Shapes
##Shapes            DEBUG Opening
##Shapes            DEBUG    attributes# = 1
##Shapes            DEBUG Opened container ##Shapes of type ROOT_Tree
##Shapes            DEBUG No objects passing selection criteria... Container has 0 Entries in total.
SimplePoolFile2...  DEBUG --> Access   DbContainer  CREATE    [ROOT_All] ##Links
##Links             DEBUG Opening
##Links             DEBUG    attributes# = 1
##Links             DEBUG Opened container ##Links of type ROOT_Tree
##Links             DEBUG No objects passing selection criteria... Container has 0 Entries in total.
SimplePoolFile2...  DEBUG --> Access   DbContainer  CREATE    [ROOT_All] ##Params
##Params            DEBUG Opening
##Params            DEBUG    attributes# = 1
##Params            DEBUG Opened container ##Params of type ROOT_Tree
SimplePoolFile2...  DEBUG --->Adding Assoc :????/##Params [200]  (2 , ffffffff)
SimplePoolFile2...  DEBUG ---->ClassID:????
##Params            DEBUG No objects passing selection criteria... Container has 0 Entries in total.
AthenaPoolCnvSvc    DEBUG setAttribute CONTAINER_SPLITLEVEL to 99 for db: SimplePoolFile2.root and cont: TTree=POOLContainerForm(DataHeaderForm)
Stream2             DEBUG connectOutput done for SimplePoolFile2.root
SimplePoolFile2...  DEBUG --> Access   DbContainer  CREA/UPDA [ROOT_Tree] CollectionTree(EventInfo_p4/McEventInfo)
CollectionTree(...  DEBUG Opening
CollectionTree(...  DEBUG    attributes# = 1
CollectionTree(...  DEBUG Branch container 'EventInfo_p4_McEventInfo'
CollectionTree(...  DEBUG Opened container CollectionTree(EventInfo_p4/McEventInfo) of type ROOT_Tree
SimplePoolFile2...  DEBUG --->Adding Assoc :????/CollectionTree(EventInfo_p4/McEventInfo) [20?]  (3 , ffffffff)
SimplePoolFile2...  DEBUG ---->ClassID:????
SimplePoolFile2...  DEBUG --->Adding Shape[0 , ????]:  [1 Column(s)] 
SimplePoolFile2...  DEBUG ---->Class:EventInfo_p4
SimplePoolFile2...  DEBUG ---->[0]:EventInfo_p4 Typ:EventInfo_p4 [21] Size:0 Offset:0 #Elements:1
SimplePoolFile2...  DEBUG --> Access   DbContainer  CREA/UPDA [ROOT_Tree] POOLContainer(DataHeader)
POOLContainer(D...  DEBUG Opening
POOLContainer(D...  DEBUG    attributes# = 1
POOLContainer(D...  DEBUG Branch container 'DataHeader'
POOLContainer(D...  DEBUG Opened container POOLContainer(DataHeader) of type ROOT_Tree
SimplePoolFile2...  DEBUG --->Adding Assoc :????/POOLContainer(DataHeader) [20?]  (4 , ffffffff)
SimplePoolFile2...  DEBUG ---->ClassID:????
SimplePoolFile2...  DEBUG --->Adding Shape[1 , ????]:  [1 Column(s)] 
SimplePoolFile2...  DEBUG ---->Class:DataHeader_p6
SimplePoolFile2...  DEBUG ---->[0]:DataHeader_p6 Typ:DataHeader_p6 [21] Size:0 Offset:0 #Elements:1
SimplePoolFile2...  DEBUG --> Access   DbContainer  CREA/UPDA [ROOT_Tree] POOLContainerForm(DataHeaderForm)
POOLContainerFo...  DEBUG Opening
POOLContainerFo...  DEBUG    attributes# = 1
POOLContainerFo...  DEBUG Branch container 'DataHeaderForm'
POOLContainerFo...  DEBUG Opened container POOLContainerForm(DataHeaderForm) of type ROOT_Tree
SimplePoolFile2...  DEBUG --->Adding Assoc :????/POOLContainerForm(DataHeaderForm) [20?]  (5 , ffffffff)
SimplePoolFile2...  DEBUG ---->ClassID:????
SimplePoolFile2...  DEBUG --->Adding Shape[2 , ????]:  [1 Column(s)] 
SimplePoolFile2...  DEBUG ---->Class:DataHeaderForm_p6
SimplePoolFile2...  DEBUG ---->[0]:DataHeaderForm_p6 Typ:DataHeaderForm_p6 [21] Size:0 Offset:0 #Elements:1
SimplePoolFile2...  DEBUG --> Access   DbContainer  CREA/UPDA [ROOT_Tree] POOLCollectionTree(Token)
POOLCollectionT...  DEBUG Opening
POOLCollectionT...  DEBUG    attributes# = 1
POOLCollectionT...  DEBUG Branch container 'Token'
POOLCollectionT...  DEBUG Opened container POOLCollectionTree(Token) of type ROOT_Tree
SimplePoolFile2...  DEBUG --->Adding Assoc :????/POOLCollectionTree(Token) [20?]  (6 , ffffffff)
SimplePoolFile2...  DEBUG ---->ClassID:????
SimplePoolFile2...  DEBUG --->Adding Shape[3 , ????]:  [1 Column(s)] 
SimplePoolFile2...  DEBUG ---->Class:Token
SimplePoolFile2...  DEBUG ---->[0]:Token Typ:Token [18] Size:0 Offset:0 #Elements:1
SimplePoolFile2...  DEBUG --> Access   DbContainer  CREA/UPDA [ROOT_Tree] POOLCollectionTree(RunNumber)
POOLCollectionT...  DEBUG Opening
POOLCollectionT...  DEBUG    attributes# = 1
POOLCollectionT...  DEBUG Branch container 'RunNumber'
POOLCollectionT...  DEBUG Opened container POOLCollectionTree(RunNumber) of type ROOT_Tree
SimplePoolFile2...  DEBUG --->Adding Assoc :????/POOLCollectionTree(RunNumber) [20?]  (7 , ffffffff)
SimplePoolFile2...  DEBUG ---->ClassID:????
SimplePoolFile2...  DEBUG --->Adding Shape[4 , ????]:  [1 Column(s)] 
SimplePoolFile2...  DEBUG ---->Class:unsigned int
SimplePoolFile2...  DEBUG ---->[0]:unsigned int Typ:unsigned int [3] Size:0 Offset:0 #Elements:1
SimplePoolFile2...  DEBUG --> Access   DbContainer  CREA/UPDA [ROOT_Tree] POOLCollectionTree(EventNumber)
POOLCollectionT...  DEBUG Opening
POOLCollectionT...  DEBUG    attributes# = 1
POOLCollectionT...  DEBUG Branch container 'EventNumber'
POOLCollectionT...  DEBUG Opened container POOLCollectionTree(EventNumber) of type ROOT_Tree
SimplePoolFile2...  DEBUG --->Adding Assoc :????/POOLCollectionTree(EventNumber) [20?]  (8 , ffffffff)
SimplePoolFile2...  DEBUG ---->ClassID:????
SimplePoolFile2...  DEBUG --> Access   DbContainer  CREA/UPDA [ROOT_Tree] POOLCollectionTree(MagicNumber)
POOLCollectionT...  DEBUG Opening
POOLCollectionT...  DEBUG    attributes# = 1
POOLCollectionT...  DEBUG Branch container 'MagicNumber'
POOLCollectionT...  DEBUG Opened container POOLCollectionTree(MagicNumber) of type ROOT_Tree
SimplePoolFile2...  DEBUG --->Adding Assoc :????/POOLCollectionTree(MagicNumber) [20?]  (9 , ffffffff)
SimplePoolFile2...  DEBUG ---->ClassID:????
AthenaPoolCnvSvc    DEBUG setAttribute BRANCH_BASKET_SIZE to 256000 for db: SimplePoolFile2.root and cont: POOLContainer(DataHeader)
AthenaPoolCnvSvc    DEBUG setAttribute BRANCH_BASKET_SIZE to 1024000 for db: SimplePoolFile2.root and cont: POOLContainerForm(DataHeaderForm)
AthenaEventLoopMgr   INFO   ===>>>  done processing event #0, run #1 1 events processed so far  <<<===
AthenaEventLoopMgr   INFO   ===>>>  start processing event #1, run #1 1 events processed so far  <<<===
WriteData           DEBUG in execute()
WriteData            INFO EventInfo event: 1  run: 1
WriteData            INFO registered all data
WriteTag             INFO EventInfo event: 1  run: 1
WriteTag             INFO registered all data
MagicWriteTag        INFO EventInfo event: 1  run: 1
MagicWriteTag        INFO registered all data
EventInfoTagBui...   INFO No input attribute list
Stream1             DEBUG addItemObjects(2101,"*") called
Stream1             DEBUG            Key:*
Stream1             DEBUG      Comp Attr 0 with 7 mantissa bits.
Stream1             DEBUG      Comp Attr 0 with 15 mantissa bits.
Stream1             DEBUG  Added object 2101,"McEventInfo"
Stream1             DEBUG addItemObjects(9102,"MyHits") called
Stream1             DEBUG            Key:MyHits
Stream1             DEBUG      Comp Attr 0 with 7 mantissa bits.
Stream1             DEBUG      Comp Attr 0 with 15 mantissa bits.
Stream1             DEBUG  Added object 9102,"MyHits"
Stream1             DEBUG addItemObjects(9102,"PetersHits") called
Stream1             DEBUG            Key:PetersHits
Stream1             DEBUG      Comp Attr 0 with 7 mantissa bits.
Stream1             DEBUG      Comp Attr 0 with 15 mantissa bits.
Stream1             DEBUG  No object matching 9102,"PetersHits" found
Stream1             DEBUG  Collected objects:
Stream1             DEBUG  Object/count: EventInfo_McEventInfo, 2
Stream1             DEBUG  Object/count: ExampleHitContainer_MyHits, 2
Stream1             DEBUG connectOutput done for SimplePoolFile1.root
Stream2             DEBUG addItemObjects(2101,"*") called
Stream2             DEBUG            Key:*
Stream2             DEBUG      Comp Attr 0 with 7 mantissa bits.
Stream2             DEBUG      Comp Attr 0 with 15 mantissa bits.
Stream2             DEBUG  Added object 2101,"McEventInfo"
Stream2             DEBUG addItemObjects(9102,"*") called
Stream2             DEBUG            Key:*
Stream2             DEBUG      Comp Attr 0 with 7 mantissa bits.
Stream2             DEBUG      Comp Attr 0 with 15 mantissa bits.
Stream2             DEBUG  Collected objects:
Stream2             DEBUG  Object/count: EventInfo_McEventInfo, 2
Stream2             DEBUG connectOutput done for SimplePoolFile2.root
AthenaEventLoopMgr   INFO   ===>>>  done processing event #1, run #1 2 events processed so far  <<<===
AthenaEventLoopMgr   INFO   ===>>>  start processing event #2, run #1 2 events processed so far  <<<===
WriteData           DEBUG in execute()
WriteData            INFO EventInfo event: 2  run: 1
WriteData            INFO registered all data
WriteTag             INFO EventInfo event: 2  run: 1
WriteTag             INFO registered all data
MagicWriteTag        INFO EventInfo event: 2  run: 1
MagicWriteTag        INFO registered all data
EventInfoTagBui...   INFO No input attribute list
Stream1             DEBUG addItemObjects(2101,"*") called
Stream1             DEBUG            Key:*
Stream1             DEBUG      Comp Attr 0 with 7 mantissa bits.
Stream1             DEBUG      Comp Attr 0 with 15 mantissa bits.
Stream1             DEBUG  Added object 2101,"McEventInfo"
Stream1             DEBUG addItemObjects(9102,"MyHits") called
Stream1             DEBUG            Key:MyHits
Stream1             DEBUG      Comp Attr 0 with 7 mantissa bits.
Stream1             DEBUG      Comp Attr 0 with 15 mantissa bits.
Stream1             DEBUG  Added object 9102,"MyHits"
Stream1             DEBUG addItemObjects(9102,"PetersHits") called
Stream1             DEBUG            Key:PetersHits
Stream1             DEBUG      Comp Attr 0 with 7 mantissa bits.
Stream1             DEBUG      Comp Attr 0 with 15 mantissa bits.
Stream1             DEBUG  No object matching 9102,"PetersHits" found
Stream1             DEBUG  Collected objects:
Stream1             DEBUG  Object/count: EventInfo_McEventInfo, 3
Stream1             DEBUG  Object/count: ExampleHitContainer_MyHits, 3
Stream1             DEBUG connectOutput done for SimplePoolFile1.root
Stream2             DEBUG addItemObjects(2101,"*") called
Stream2             DEBUG            Key:*
Stream2             DEBUG      Comp Attr 0 with 7 mantissa bits.
Stream2             DEBUG      Comp Attr 0 with 15 mantissa bits.
Stream2             DEBUG  Added object 2101,"McEventInfo"
Stream2             DEBUG addItemObjects(9102,"*") called
Stream2             DEBUG            Key:*
Stream2             DEBUG      Comp Attr 0 with 7 mantissa bits.
Stream2             DEBUG      Comp Attr 0 with 15 mantissa bits.
Stream2             DEBUG  Collected objects:
Stream2             DEBUG  Object/count: EventInfo_McEventInfo, 3
Stream2             DEBUG connectOutput done for SimplePoolFile2.root
AthenaEventLoopMgr   INFO   ===>>>  done processing event #2, run #1 3 events processed so far  <<<===
AthenaEventLoopMgr   INFO   ===>>>  start processing event #3, run #1 3 events processed so far  <<<===
WriteData           DEBUG in execute()
WriteData            INFO EventInfo event: 3  run: 1
WriteData            INFO registered all data
WriteTag             INFO EventInfo event: 3  run: 1
WriteTag             INFO registered all data
MagicWriteTag        INFO EventInfo event: 3  run: 1
MagicWriteTag        INFO registered all data
EventInfoTagBui...   INFO No input attribute list
Stream1             DEBUG addItemObjects(2101,"*") called
Stream1             DEBUG            Key:*
Stream1             DEBUG      Comp Attr 0 with 7 mantissa bits.
Stream1             DEBUG      Comp Attr 0 with 15 mantissa bits.
Stream1             DEBUG  Added object 2101,"McEventInfo"
Stream1             DEBUG addItemObjects(9102,"MyHits") called
Stream1             DEBUG            Key:MyHits
Stream1             DEBUG      Comp Attr 0 with 7 mantissa bits.
Stream1             DEBUG      Comp Attr 0 with 15 mantissa bits.
Stream1             DEBUG  Added object 9102,"MyHits"
Stream1             DEBUG addItemObjects(9102,"PetersHits") called
Stream1             DEBUG            Key:PetersHits
Stream1             DEBUG      Comp Attr 0 with 7 mantissa bits.
Stream1             DEBUG      Comp Attr 0 with 15 mantissa bits.
Stream1             DEBUG  No object matching 9102,"PetersHits" found
Stream1             DEBUG  Collected objects:
Stream1             DEBUG  Object/count: EventInfo_McEventInfo, 4
Stream1             DEBUG  Object/count: ExampleHitContainer_MyHits, 4
Stream1             DEBUG connectOutput done for SimplePoolFile1.root
Stream2             DEBUG addItemObjects(2101,"*") called
Stream2             DEBUG            Key:*
Stream2             DEBUG      Comp Attr 0 with 7 mantissa bits.
Stream2             DEBUG      Comp Attr 0 with 15 mantissa bits.
Stream2             DEBUG  Added object 2101,"McEventInfo"
Stream2             DEBUG addItemObjects(9102,"*") called
Stream2             DEBUG            Key:*
Stream2             DEBUG      Comp Attr 0 with 7 mantissa bits.
Stream2             DEBUG      Comp Attr 0 with 15 mantissa bits.
Stream2             DEBUG  Collected objects:
Stream2             DEBUG  Object/count: EventInfo_McEventInfo, 4
Stream2             DEBUG connectOutput done for SimplePoolFile2.root
AthenaEventLoopMgr   INFO   ===>>>  done processing event #3, run #1 4 events processed so far  <<<===
AthenaEventLoopMgr   INFO   ===>>>  start processing event #4, run #1 4 events processed so far  <<<===
WriteData           DEBUG in execute()
WriteData            INFO EventInfo event: 4  run: 1
WriteData            INFO registered all data
WriteTag             INFO EventInfo event: 4  run: 1
WriteTag             INFO registered all data
MagicWriteTag        INFO EventInfo event: 4  run: 1
MagicWriteTag        INFO registered all data
EventInfoTagBui...   INFO No input attribute list
Stream1             DEBUG addItemObjects(2101,"*") called
Stream1             DEBUG            Key:*
Stream1             DEBUG      Comp Attr 0 with 7 mantissa bits.
Stream1             DEBUG      Comp Attr 0 with 15 mantissa bits.
Stream1             DEBUG  Added object 2101,"McEventInfo"
Stream1             DEBUG addItemObjects(9102,"MyHits") called
Stream1             DEBUG            Key:MyHits
Stream1             DEBUG      Comp Attr 0 with 7 mantissa bits.
Stream1             DEBUG      Comp Attr 0 with 15 mantissa bits.
Stream1             DEBUG  Added object 9102,"MyHits"
Stream1             DEBUG addItemObjects(9102,"PetersHits") called
Stream1             DEBUG            Key:PetersHits
Stream1             DEBUG      Comp Attr 0 with 7 mantissa bits.
Stream1             DEBUG      Comp Attr 0 with 15 mantissa bits.
Stream1             DEBUG  No object matching 9102,"PetersHits" found
Stream1             DEBUG  Collected objects:
Stream1             DEBUG  Object/count: EventInfo_McEventInfo, 5
Stream1             DEBUG  Object/count: ExampleHitContainer_MyHits, 5
Stream1             DEBUG connectOutput done for SimplePoolFile1.root
Stream2             DEBUG addItemObjects(2101,"*") called
Stream2             DEBUG            Key:*
Stream2             DEBUG      Comp Attr 0 with 7 mantissa bits.
Stream2             DEBUG      Comp Attr 0 with 15 mantissa bits.
Stream2             DEBUG  Added object 2101,"McEventInfo"
Stream2             DEBUG addItemObjects(9102,"*") called
Stream2             DEBUG            Key:*
Stream2             DEBUG      Comp Attr 0 with 7 mantissa bits.
Stream2             DEBUG      Comp Attr 0 with 15 mantissa bits.
Stream2             DEBUG  Collected objects:
Stream2             DEBUG  Object/count: EventInfo_McEventInfo, 5
Stream2             DEBUG connectOutput done for SimplePoolFile2.root
AthenaEventLoopMgr   INFO   ===>>>  done processing event #4, run #1 5 events processed so far  <<<===
AthenaEventLoopMgr   INFO   ===>>>  start processing event #5, run #1 5 events processed so far  <<<===
WriteData           DEBUG in execute()
WriteData            INFO EventInfo event: 5  run: 1
WriteData            INFO registered all data
WriteTag             INFO EventInfo event: 5  run: 1
WriteTag             INFO registered all data
MagicWriteTag        INFO EventInfo event: 5  run: 1
MagicWriteTag        INFO registered all data
EventInfoTagBui...   INFO No input attribute list
Stream1             DEBUG addItemObjects(2101,"*") called
Stream1             DEBUG            Key:*
Stream1             DEBUG      Comp Attr 0 with 7 mantissa bits.
Stream1             DEBUG      Comp Attr 0 with 15 mantissa bits.
Stream1             DEBUG  Added object 2101,"McEventInfo"
Stream1             DEBUG addItemObjects(9102,"MyHits") called
Stream1             DEBUG            Key:MyHits
Stream1             DEBUG      Comp Attr 0 with 7 mantissa bits.
Stream1             DEBUG      Comp Attr 0 with 15 mantissa bits.
Stream1             DEBUG  Added object 9102,"MyHits"
Stream1             DEBUG addItemObjects(9102,"PetersHits") called
Stream1             DEBUG            Key:PetersHits
Stream1             DEBUG      Comp Attr 0 with 7 mantissa bits.
Stream1             DEBUG      Comp Attr 0 with 15 mantissa bits.
Stream1             DEBUG  No object matching 9102,"PetersHits" found
Stream1             DEBUG  Collected objects:
Stream1             DEBUG  Object/count: EventInfo_McEventInfo, 6
Stream1             DEBUG  Object/count: ExampleHitContainer_MyHits, 6
Stream1             DEBUG connectOutput done for SimplePoolFile1.root
Stream2             DEBUG addItemObjects(2101,"*") called
Stream2             DEBUG            Key:*
Stream2             DEBUG      Comp Attr 0 with 7 mantissa bits.
Stream2             DEBUG      Comp Attr 0 with 15 mantissa bits.
Stream2             DEBUG  Added object 2101,"McEventInfo"
Stream2             DEBUG addItemObjects(9102,"*") called
Stream2             DEBUG            Key:*
Stream2             DEBUG      Comp Attr 0 with 7 mantissa bits.
Stream2             DEBUG      Comp Attr 0 with 15 mantissa bits.
Stream2             DEBUG  Collected objects:
Stream2             DEBUG  Object/count: EventInfo_McEventInfo, 6
Stream2             DEBUG connectOutput done for SimplePoolFile2.root
AthenaEventLoopMgr   INFO   ===>>>  done processing event #5, run #1 6 events processed so far  <<<===
AthenaEventLoopMgr   INFO   ===>>>  start processing event #6, run #1 6 events processed so far  <<<===
WriteData           DEBUG in execute()
WriteData            INFO EventInfo event: 6  run: 1
WriteData            INFO registered all data
WriteTag             INFO EventInfo event: 6  run: 1
WriteTag             INFO registered all data
MagicWriteTag        INFO EventInfo event: 6  run: 1
MagicWriteTag        INFO registered all data
EventInfoTagBui...   INFO No input attribute list
Stream1             DEBUG addItemObjects(2101,"*") called
Stream1             DEBUG            Key:*
Stream1             DEBUG      Comp Attr 0 with 7 mantissa bits.
Stream1             DEBUG      Comp Attr 0 with 15 mantissa bits.
Stream1             DEBUG  Added object 2101,"McEventInfo"
Stream1             DEBUG addItemObjects(9102,"MyHits") called
Stream1             DEBUG            Key:MyHits
Stream1             DEBUG      Comp Attr 0 with 7 mantissa bits.
Stream1             DEBUG      Comp Attr 0 with 15 mantissa bits.
Stream1             DEBUG  Added object 9102,"MyHits"
Stream1             DEBUG addItemObjects(9102,"PetersHits") called
Stream1             DEBUG            Key:PetersHits
Stream1             DEBUG      Comp Attr 0 with 7 mantissa bits.
Stream1             DEBUG      Comp Attr 0 with 15 mantissa bits.
Stream1             DEBUG  No object matching 9102,"PetersHits" found
Stream1             DEBUG  Collected objects:
Stream1             DEBUG  Object/count: EventInfo_McEventInfo, 7
Stream1             DEBUG  Object/count: ExampleHitContainer_MyHits, 7
Stream1             DEBUG connectOutput done for SimplePoolFile1.root
Stream2             DEBUG addItemObjects(2101,"*") called
Stream2             DEBUG            Key:*
Stream2             DEBUG      Comp Attr 0 with 7 mantissa bits.
Stream2             DEBUG      Comp Attr 0 with 15 mantissa bits.
Stream2             DEBUG  Added object 2101,"McEventInfo"
Stream2             DEBUG addItemObjects(9102,"*") called
Stream2             DEBUG            Key:*
Stream2             DEBUG      Comp Attr 0 with 7 mantissa bits.
Stream2             DEBUG      Comp Attr 0 with 15 mantissa bits.
Stream2             DEBUG  Collected objects:
Stream2             DEBUG  Object/count: EventInfo_McEventInfo, 7
Stream2             DEBUG connectOutput done for SimplePoolFile2.root
AthenaEventLoopMgr   INFO   ===>>>  done processing event #6, run #1 7 events processed so far  <<<===
AthenaEventLoopMgr   INFO   ===>>>  start processing event #7, run #1 7 events processed so far  <<<===
WriteData           DEBUG in execute()
WriteData            INFO EventInfo event: 7  run: 1
WriteData            INFO registered all data
WriteTag             INFO EventInfo event: 7  run: 1
WriteTag             INFO registered all data
MagicWriteTag        INFO EventInfo event: 7  run: 1
MagicWriteTag        INFO registered all data
EventInfoTagBui...   INFO No input attribute list
Stream1             DEBUG addItemObjects(2101,"*") called
Stream1             DEBUG            Key:*
Stream1             DEBUG      Comp Attr 0 with 7 mantissa bits.
Stream1             DEBUG      Comp Attr 0 with 15 mantissa bits.
Stream1             DEBUG  Added object 2101,"McEventInfo"
Stream1             DEBUG addItemObjects(9102,"MyHits") called
Stream1             DEBUG            Key:MyHits
Stream1             DEBUG      Comp Attr 0 with 7 mantissa bits.
Stream1             DEBUG      Comp Attr 0 with 15 mantissa bits.
Stream1             DEBUG  Added object 9102,"MyHits"
Stream1             DEBUG addItemObjects(9102,"PetersHits") called
Stream1             DEBUG            Key:PetersHits
Stream1             DEBUG      Comp Attr 0 with 7 mantissa bits.
Stream1             DEBUG      Comp Attr 0 with 15 mantissa bits.
Stream1             DEBUG  No object matching 9102,"PetersHits" found
Stream1             DEBUG  Collected objects:
Stream1             DEBUG  Object/count: EventInfo_McEventInfo, 8
Stream1             DEBUG  Object/count: ExampleHitContainer_MyHits, 8
Stream1             DEBUG connectOutput done for SimplePoolFile1.root
Stream2             DEBUG addItemObjects(2101,"*") called
Stream2             DEBUG            Key:*
Stream2             DEBUG      Comp Attr 0 with 7 mantissa bits.
Stream2             DEBUG      Comp Attr 0 with 15 mantissa bits.
Stream2             DEBUG  Added object 2101,"McEventInfo"
Stream2             DEBUG addItemObjects(9102,"*") called
Stream2             DEBUG            Key:*
Stream2             DEBUG      Comp Attr 0 with 7 mantissa bits.
Stream2             DEBUG      Comp Attr 0 with 15 mantissa bits.
Stream2             DEBUG  Collected objects:
Stream2             DEBUG  Object/count: EventInfo_McEventInfo, 8
Stream2             DEBUG connectOutput done for SimplePoolFile2.root
AthenaEventLoopMgr   INFO   ===>>>  done processing event #7, run #1 8 events processed so far  <<<===
AthenaEventLoopMgr   INFO   ===>>>  start processing event #8, run #1 8 events processed so far  <<<===
WriteData           DEBUG in execute()
WriteData            INFO EventInfo event: 8  run: 1
WriteData            INFO registered all data
WriteTag             INFO EventInfo event: 8  run: 1
WriteTag             INFO registered all data
MagicWriteTag        INFO EventInfo event: 8  run: 1
MagicWriteTag        INFO registered all data
EventInfoTagBui...   INFO No input attribute list
Stream1             DEBUG addItemObjects(2101,"*") called
Stream1             DEBUG            Key:*
Stream1             DEBUG      Comp Attr 0 with 7 mantissa bits.
Stream1             DEBUG      Comp Attr 0 with 15 mantissa bits.
Stream1             DEBUG  Added object 2101,"McEventInfo"
Stream1             DEBUG addItemObjects(9102,"MyHits") called
Stream1             DEBUG            Key:MyHits
Stream1             DEBUG      Comp Attr 0 with 7 mantissa bits.
Stream1             DEBUG      Comp Attr 0 with 15 mantissa bits.
Stream1             DEBUG  Added object 9102,"MyHits"
Stream1             DEBUG addItemObjects(9102,"PetersHits") called
Stream1             DEBUG            Key:PetersHits
Stream1             DEBUG      Comp Attr 0 with 7 mantissa bits.
Stream1             DEBUG      Comp Attr 0 with 15 mantissa bits.
Stream1             DEBUG  No object matching 9102,"PetersHits" found
Stream1             DEBUG  Collected objects:
Stream1             DEBUG  Object/count: EventInfo_McEventInfo, 9
Stream1             DEBUG  Object/count: ExampleHitContainer_MyHits, 9
Stream1             DEBUG connectOutput done for SimplePoolFile1.root
Stream2             DEBUG addItemObjects(2101,"*") called
Stream2             DEBUG            Key:*
Stream2             DEBUG      Comp Attr 0 with 7 mantissa bits.
Stream2             DEBUG      Comp Attr 0 with 15 mantissa bits.
Stream2             DEBUG  Added object 2101,"McEventInfo"
Stream2             DEBUG addItemObjects(9102,"*") called
Stream2             DEBUG            Key:*
Stream2             DEBUG      Comp Attr 0 with 7 mantissa bits.
Stream2             DEBUG      Comp Attr 0 with 15 mantissa bits.
Stream2             DEBUG  Collected objects:
Stream2             DEBUG  Object/count: EventInfo_McEventInfo, 9
Stream2             DEBUG connectOutput done for SimplePoolFile2.root
AthenaEventLoopMgr   INFO   ===>>>  done processing event #8, run #1 9 events processed so far  <<<===
AthenaEventLoopMgr   INFO   ===>>>  start processing event #9, run #1 9 events processed so far  <<<===
WriteData           DEBUG in execute()
WriteData            INFO EventInfo event: 9  run: 1
WriteData            INFO registered all data
WriteTag             INFO EventInfo event: 9  run: 1
WriteTag             INFO registered all data
MagicWriteTag        INFO EventInfo event: 9  run: 1
MagicWriteTag        INFO registered all data
EventInfoTagBui...   INFO No input attribute list
Stream1             DEBUG addItemObjects(2101,"*") called
Stream1             DEBUG            Key:*
Stream1             DEBUG      Comp Attr 0 with 7 mantissa bits.
Stream1             DEBUG      Comp Attr 0 with 15 mantissa bits.
Stream1             DEBUG  Added object 2101,"McEventInfo"
Stream1             DEBUG addItemObjects(9102,"MyHits") called
Stream1             DEBUG            Key:MyHits
Stream1             DEBUG      Comp Attr 0 with 7 mantissa bits.
Stream1             DEBUG      Comp Attr 0 with 15 mantissa bits.
Stream1             DEBUG  Added object 9102,"MyHits"
Stream1             DEBUG addItemObjects(9102,"PetersHits") called
Stream1             DEBUG            Key:PetersHits
Stream1             DEBUG      Comp Attr 0 with 7 mantissa bits.
Stream1             DEBUG      Comp Attr 0 with 15 mantissa bits.
Stream1             DEBUG  No object matching 9102,"PetersHits" found
Stream1             DEBUG  Collected objects:
Stream1             DEBUG  Object/count: EventInfo_McEventInfo, 10
Stream1             DEBUG  Object/count: ExampleHitContainer_MyHits, 10
Stream1             DEBUG connectOutput done for SimplePoolFile1.root
Stream2             DEBUG addItemObjects(2101,"*") called
Stream2             DEBUG            Key:*
Stream2             DEBUG      Comp Attr 0 with 7 mantissa bits.
Stream2             DEBUG      Comp Attr 0 with 15 mantissa bits.
Stream2             DEBUG  Added object 2101,"McEventInfo"
Stream2             DEBUG addItemObjects(9102,"*") called
Stream2             DEBUG            Key:*
Stream2             DEBUG      Comp Attr 0 with 7 mantissa bits.
Stream2             DEBUG      Comp Attr 0 with 15 mantissa bits.
Stream2             DEBUG  Collected objects:
Stream2             DEBUG  Object/count: EventInfo_McEventInfo, 10
Stream2             DEBUG connectOutput done for SimplePoolFile2.root
AthenaEventLoopMgr   INFO   ===>>>  done processing event #9, run #1 10 events processed so far  <<<===
AthenaEventLoopMgr   INFO   ===>>>  start processing event #10, run #1 10 events processed so far  <<<===
WriteData           DEBUG in execute()
WriteData            INFO EventInfo event: 10  run: 1
WriteData            INFO registered all data
WriteTag             INFO EventInfo event: 10  run: 1
WriteTag             INFO registered all data
MagicWriteTag        INFO EventInfo event: 10  run: 1
MagicWriteTag        INFO registered all data
EventInfoTagBui...   INFO No input attribute list
Stream1             DEBUG addItemObjects(2101,"*") called
Stream1             DEBUG            Key:*
Stream1             DEBUG      Comp Attr 0 with 7 mantissa bits.
Stream1             DEBUG      Comp Attr 0 with 15 mantissa bits.
Stream1             DEBUG  Added object 2101,"McEventInfo"
Stream1             DEBUG addItemObjects(9102,"MyHits") called
Stream1             DEBUG            Key:MyHits
Stream1             DEBUG      Comp Attr 0 with 7 mantissa bits.
Stream1             DEBUG      Comp Attr 0 with 15 mantissa bits.
Stream1             DEBUG  Added object 9102,"MyHits"
Stream1             DEBUG addItemObjects(9102,"PetersHits") called
Stream1             DEBUG            Key:PetersHits
Stream1             DEBUG      Comp Attr 0 with 7 mantissa bits.
Stream1             DEBUG      Comp Attr 0 with 15 mantissa bits.
Stream1             DEBUG  No object matching 9102,"PetersHits" found
Stream1             DEBUG  Collected objects:
Stream1             DEBUG  Object/count: EventInfo_McEventInfo, 11
Stream1             DEBUG  Object/count: ExampleHitContainer_MyHits, 11
Stream1             DEBUG connectOutput done for SimplePoolFile1.root
Stream2             DEBUG addItemObjects(2101,"*") called
Stream2             DEBUG            Key:*
Stream2             DEBUG      Comp Attr 0 with 7 mantissa bits.
Stream2             DEBUG      Comp Attr 0 with 15 mantissa bits.
Stream2             DEBUG  Added object 2101,"McEventInfo"
Stream2             DEBUG addItemObjects(9102,"*") called
Stream2             DEBUG            Key:*
Stream2             DEBUG      Comp Attr 0 with 7 mantissa bits.
Stream2             DEBUG      Comp Attr 0 with 15 mantissa bits.
Stream2             DEBUG  Collected objects:
Stream2             DEBUG  Object/count: EventInfo_McEventInfo, 11
Stream2             DEBUG connectOutput done for SimplePoolFile2.root
AthenaEventLoopMgr   INFO   ===>>>  done processing event #10, run #1 11 events processed so far  <<<===
AthenaEventLoopMgr   INFO   ===>>>  start processing event #11, run #1 11 events processed so far  <<<===
WriteData           DEBUG in execute()
WriteData            INFO EventInfo event: 11  run: 1
WriteData            INFO registered all data
WriteTag             INFO EventInfo event: 11  run: 1
WriteTag             INFO registered all data
MagicWriteTag        INFO EventInfo event: 11  run: 1
MagicWriteTag        INFO registered all data
EventInfoTagBui...   INFO No input attribute list
Stream1             DEBUG addItemObjects(2101,"*") called
Stream1             DEBUG            Key:*
Stream1             DEBUG      Comp Attr 0 with 7 mantissa bits.
Stream1             DEBUG      Comp Attr 0 with 15 mantissa bits.
Stream1             DEBUG  Added object 2101,"McEventInfo"
Stream1             DEBUG addItemObjects(9102,"MyHits") called
Stream1             DEBUG            Key:MyHits
Stream1             DEBUG      Comp Attr 0 with 7 mantissa bits.
Stream1             DEBUG      Comp Attr 0 with 15 mantissa bits.
Stream1             DEBUG  Added object 9102,"MyHits"
Stream1             DEBUG addItemObjects(9102,"PetersHits") called
Stream1             DEBUG            Key:PetersHits
Stream1             DEBUG      Comp Attr 0 with 7 mantissa bits.
Stream1             DEBUG      Comp Attr 0 with 15 mantissa bits.
Stream1             DEBUG  No object matching 9102,"PetersHits" found
Stream1             DEBUG  Collected objects:
Stream1             DEBUG  Object/count: EventInfo_McEventInfo, 12
Stream1             DEBUG  Object/count: ExampleHitContainer_MyHits, 12
Stream1             DEBUG connectOutput done for SimplePoolFile1.root
Stream2             DEBUG addItemObjects(2101,"*") called
Stream2             DEBUG            Key:*
Stream2             DEBUG      Comp Attr 0 with 7 mantissa bits.
Stream2             DEBUG      Comp Attr 0 with 15 mantissa bits.
Stream2             DEBUG  Added object 2101,"McEventInfo"
Stream2             DEBUG addItemObjects(9102,"*") called
Stream2             DEBUG            Key:*
Stream2             DEBUG      Comp Attr 0 with 7 mantissa bits.
Stream2             DEBUG      Comp Attr 0 with 15 mantissa bits.
Stream2             DEBUG  Collected objects:
Stream2             DEBUG  Object/count: EventInfo_McEventInfo, 12
Stream2             DEBUG connectOutput done for SimplePoolFile2.root
AthenaEventLoopMgr   INFO   ===>>>  done processing event #11, run #1 12 events processed so far  <<<===
AthenaEventLoopMgr   INFO   ===>>>  start processing event #12, run #1 12 events processed so far  <<<===
WriteData           DEBUG in execute()
WriteData            INFO EventInfo event: 12  run: 1
WriteData            INFO registered all data
WriteTag             INFO EventInfo event: 12  run: 1
WriteTag             INFO registered all data
MagicWriteTag        INFO EventInfo event: 12  run: 1
MagicWriteTag        INFO registered all data
EventInfoTagBui...   INFO No input attribute list
Stream1             DEBUG addItemObjects(2101,"*") called
Stream1             DEBUG            Key:*
Stream1             DEBUG      Comp Attr 0 with 7 mantissa bits.
Stream1             DEBUG      Comp Attr 0 with 15 mantissa bits.
Stream1             DEBUG  Added object 2101,"McEventInfo"
Stream1             DEBUG addItemObjects(9102,"MyHits") called
Stream1             DEBUG            Key:MyHits
Stream1             DEBUG      Comp Attr 0 with 7 mantissa bits.
Stream1             DEBUG      Comp Attr 0 with 15 mantissa bits.
Stream1             DEBUG  Added object 9102,"MyHits"
Stream1             DEBUG addItemObjects(9102,"PetersHits") called
Stream1             DEBUG            Key:PetersHits
Stream1             DEBUG      Comp Attr 0 with 7 mantissa bits.
Stream1             DEBUG      Comp Attr 0 with 15 mantissa bits.
Stream1             DEBUG  No object matching 9102,"PetersHits" found
Stream1             DEBUG  Collected objects:
Stream1             DEBUG  Object/count: EventInfo_McEventInfo, 13
Stream1             DEBUG  Object/count: ExampleHitContainer_MyHits, 13
Stream1             DEBUG connectOutput done for SimplePoolFile1.root
Stream2             DEBUG addItemObjects(2101,"*") called
Stream2             DEBUG            Key:*
Stream2             DEBUG      Comp Attr 0 with 7 mantissa bits.
Stream2             DEBUG      Comp Attr 0 with 15 mantissa bits.
Stream2             DEBUG  Added object 2101,"McEventInfo"
Stream2             DEBUG addItemObjects(9102,"*") called
Stream2             DEBUG            Key:*
Stream2             DEBUG      Comp Attr 0 with 7 mantissa bits.
Stream2             DEBUG      Comp Attr 0 with 15 mantissa bits.
Stream2             DEBUG  Collected objects:
Stream2             DEBUG  Object/count: EventInfo_McEventInfo, 13
Stream2             DEBUG connectOutput done for SimplePoolFile2.root
AthenaEventLoopMgr   INFO   ===>>>  done processing event #12, run #1 13 events processed so far  <<<===
AthenaEventLoopMgr   INFO   ===>>>  start processing event #13, run #1 13 events processed so far  <<<===
WriteData           DEBUG in execute()
WriteData            INFO EventInfo event: 13  run: 1
WriteData            INFO registered all data
WriteTag             INFO EventInfo event: 13  run: 1
WriteTag             INFO registered all data
MagicWriteTag        INFO EventInfo event: 13  run: 1
MagicWriteTag        INFO registered all data
EventInfoTagBui...   INFO No input attribute list
Stream1             DEBUG addItemObjects(2101,"*") called
Stream1             DEBUG            Key:*
Stream1             DEBUG      Comp Attr 0 with 7 mantissa bits.
Stream1             DEBUG      Comp Attr 0 with 15 mantissa bits.
Stream1             DEBUG  Added object 2101,"McEventInfo"
Stream1             DEBUG addItemObjects(9102,"MyHits") called
Stream1             DEBUG            Key:MyHits
Stream1             DEBUG      Comp Attr 0 with 7 mantissa bits.
Stream1             DEBUG      Comp Attr 0 with 15 mantissa bits.
Stream1             DEBUG  Added object 9102,"MyHits"
Stream1             DEBUG addItemObjects(9102,"PetersHits") called
Stream1             DEBUG            Key:PetersHits
Stream1             DEBUG      Comp Attr 0 with 7 mantissa bits.
Stream1             DEBUG      Comp Attr 0 with 15 mantissa bits.
Stream1             DEBUG  No object matching 9102,"PetersHits" found
Stream1             DEBUG  Collected objects:
Stream1             DEBUG  Object/count: EventInfo_McEventInfo, 14
Stream1             DEBUG  Object/count: ExampleHitContainer_MyHits, 14
Stream1             DEBUG connectOutput done for SimplePoolFile1.root
Stream2             DEBUG addItemObjects(2101,"*") called
Stream2             DEBUG            Key:*
Stream2             DEBUG      Comp Attr 0 with 7 mantissa bits.
Stream2             DEBUG      Comp Attr 0 with 15 mantissa bits.
Stream2             DEBUG  Added object 2101,"McEventInfo"
Stream2             DEBUG addItemObjects(9102,"*") called
Stream2             DEBUG            Key:*
Stream2             DEBUG      Comp Attr 0 with 7 mantissa bits.
Stream2             DEBUG      Comp Attr 0 with 15 mantissa bits.
Stream2             DEBUG  Collected objects:
Stream2             DEBUG  Object/count: EventInfo_McEventInfo, 14
Stream2             DEBUG connectOutput done for SimplePoolFile2.root
AthenaEventLoopMgr   INFO   ===>>>  done processing event #13, run #1 14 events processed so far  <<<===
AthenaEventLoopMgr   INFO   ===>>>  start processing event #14, run #1 14 events processed so far  <<<===
WriteData           DEBUG in execute()
WriteData            INFO EventInfo event: 14  run: 1
WriteData            INFO Now creating ExampleHit alias for event: 14
WriteData            INFO registered all data
WriteTag             INFO EventInfo event: 14  run: 1
WriteTag             INFO registered all data
MagicWriteTag        INFO EventInfo event: 14  run: 1
MagicWriteTag        INFO registered all data
EventInfoTagBui...   INFO No input attribute list
Stream1             DEBUG addItemObjects(2101,"*") called
Stream1             DEBUG            Key:*
Stream1             DEBUG      Comp Attr 0 with 7 mantissa bits.
Stream1             DEBUG      Comp Attr 0 with 15 mantissa bits.
Stream1             DEBUG  Added object 2101,"McEventInfo"
Stream1             DEBUG addItemObjects(9102,"MyHits") called
Stream1             DEBUG            Key:MyHits
Stream1             DEBUG      Comp Attr 0 with 7 mantissa bits.
Stream1             DEBUG      Comp Attr 0 with 15 mantissa bits.
Stream1             DEBUG  Added object 9102,"MyHits"
Stream1             DEBUG addItemObjects(9102,"PetersHits") called
Stream1             DEBUG            Key:PetersHits
Stream1             DEBUG      Comp Attr 0 with 7 mantissa bits.
Stream1             DEBUG      Comp Attr 0 with 15 mantissa bits.
Stream1             DEBUG  Collected objects:
Stream1             DEBUG  Object/count: EventInfo_McEventInfo, 15
Stream1             DEBUG  Object/count: ExampleHitContainer_MyHits, 15
Stream1             DEBUG connectOutput done for SimplePoolFile1.root
Stream2             DEBUG addItemObjects(2101,"*") called
Stream2             DEBUG            Key:*
Stream2             DEBUG      Comp Attr 0 with 7 mantissa bits.
Stream2             DEBUG      Comp Attr 0 with 15 mantissa bits.
Stream2             DEBUG  Added object 2101,"McEventInfo"
Stream2             DEBUG addItemObjects(9102,"*") called
Stream2             DEBUG            Key:*
Stream2             DEBUG      Comp Attr 0 with 7 mantissa bits.
Stream2             DEBUG      Comp Attr 0 with 15 mantissa bits.
Stream2             DEBUG  Collected objects:
Stream2             DEBUG  Object/count: EventInfo_McEventInfo, 15
Stream2             DEBUG connectOutput done for SimplePoolFile2.root
AthenaEventLoopMgr   INFO   ===>>>  done processing event #14, run #1 15 events processed so far  <<<===
AthenaEventLoopMgr   INFO   ===>>>  start processing event #15, run #1 15 events processed so far  <<<===
WriteData           DEBUG in execute()
WriteData            INFO EventInfo event: 15  run: 1
WriteData            INFO registered all data
WriteTag             INFO EventInfo event: 15  run: 1
WriteTag             INFO registered all data
MagicWriteTag        INFO EventInfo event: 15  run: 1
MagicWriteTag        INFO registered all data
EventInfoTagBui...   INFO No input attribute list
Stream1             DEBUG addItemObjects(2101,"*") called
Stream1             DEBUG            Key:*
Stream1             DEBUG      Comp Attr 0 with 7 mantissa bits.
Stream1             DEBUG      Comp Attr 0 with 15 mantissa bits.
Stream1             DEBUG  Added object 2101,"McEventInfo"
Stream1             DEBUG addItemObjects(9102,"MyHits") called
Stream1             DEBUG            Key:MyHits
Stream1             DEBUG      Comp Attr 0 with 7 mantissa bits.
Stream1             DEBUG      Comp Attr 0 with 15 mantissa bits.
Stream1             DEBUG  Added object 9102,"MyHits"
Stream1             DEBUG addItemObjects(9102,"PetersHits") called
Stream1             DEBUG            Key:PetersHits
Stream1             DEBUG      Comp Attr 0 with 7 mantissa bits.
Stream1             DEBUG      Comp Attr 0 with 15 mantissa bits.
Stream1             DEBUG  Collected objects:
Stream1             DEBUG  Object/count: EventInfo_McEventInfo, 16
Stream1             DEBUG  Object/count: ExampleHitContainer_MyHits, 16
Stream1             DEBUG connectOutput done for SimplePoolFile1.root
Stream2             DEBUG addItemObjects(2101,"*") called
Stream2             DEBUG            Key:*
Stream2             DEBUG      Comp Attr 0 with 7 mantissa bits.
Stream2             DEBUG      Comp Attr 0 with 15 mantissa bits.
Stream2             DEBUG  Added object 2101,"McEventInfo"
Stream2             DEBUG addItemObjects(9102,"*") called
Stream2             DEBUG            Key:*
Stream2             DEBUG      Comp Attr 0 with 7 mantissa bits.
Stream2             DEBUG      Comp Attr 0 with 15 mantissa bits.
Stream2             DEBUG  Collected objects:
Stream2             DEBUG  Object/count: EventInfo_McEventInfo, 16
Stream2             DEBUG connectOutput done for SimplePoolFile2.root
AthenaEventLoopMgr   INFO   ===>>>  done processing event #15, run #1 16 events processed so far  <<<===
AthenaEventLoopMgr   INFO   ===>>>  start processing event #16, run #1 16 events processed so far  <<<===
WriteData           DEBUG in execute()
WriteData            INFO EventInfo event: 16  run: 1
WriteData            INFO registered all data
WriteTag             INFO EventInfo event: 16  run: 1
WriteTag             INFO registered all data
MagicWriteTag        INFO EventInfo event: 16  run: 1
MagicWriteTag        INFO registered all data
EventInfoTagBui...   INFO No input attribute list
Stream1             DEBUG addItemObjects(2101,"*") called
Stream1             DEBUG            Key:*
Stream1             DEBUG      Comp Attr 0 with 7 mantissa bits.
Stream1             DEBUG      Comp Attr 0 with 15 mantissa bits.
Stream1             DEBUG  Added object 2101,"McEventInfo"
Stream1             DEBUG addItemObjects(9102,"MyHits") called
Stream1             DEBUG            Key:MyHits
Stream1             DEBUG      Comp Attr 0 with 7 mantissa bits.
Stream1             DEBUG      Comp Attr 0 with 15 mantissa bits.
Stream1             DEBUG  Added object 9102,"MyHits"
Stream1             DEBUG addItemObjects(9102,"PetersHits") called
Stream1             DEBUG            Key:PetersHits
Stream1             DEBUG      Comp Attr 0 with 7 mantissa bits.
Stream1             DEBUG      Comp Attr 0 with 15 mantissa bits.
Stream1             DEBUG  Collected objects:
Stream1             DEBUG  Object/count: EventInfo_McEventInfo, 17
Stream1             DEBUG  Object/count: ExampleHitContainer_MyHits, 17
Stream1             DEBUG connectOutput done for SimplePoolFile1.root
Stream2             DEBUG addItemObjects(2101,"*") called
Stream2             DEBUG            Key:*
Stream2             DEBUG      Comp Attr 0 with 7 mantissa bits.
Stream2             DEBUG      Comp Attr 0 with 15 mantissa bits.
Stream2             DEBUG  Added object 2101,"McEventInfo"
Stream2             DEBUG addItemObjects(9102,"*") called
Stream2             DEBUG            Key:*
Stream2             DEBUG      Comp Attr 0 with 7 mantissa bits.
Stream2             DEBUG      Comp Attr 0 with 15 mantissa bits.
Stream2             DEBUG  Collected objects:
Stream2             DEBUG  Object/count: EventInfo_McEventInfo, 17
Stream2             DEBUG connectOutput done for SimplePoolFile2.root
AthenaEventLoopMgr   INFO   ===>>>  done processing event #16, run #1 17 events processed so far  <<<===
AthenaEventLoopMgr   INFO   ===>>>  start processing event #17, run #1 17 events processed so far  <<<===
WriteData           DEBUG in execute()
WriteData            INFO EventInfo event: 17  run: 1
WriteData            INFO registered all data
WriteTag             INFO EventInfo event: 17  run: 1
WriteTag             INFO registered all data
MagicWriteTag        INFO EventInfo event: 17  run: 1
MagicWriteTag        INFO registered all data
EventInfoTagBui...   INFO No input attribute list
Stream1             DEBUG addItemObjects(2101,"*") called
Stream1             DEBUG            Key:*
Stream1             DEBUG      Comp Attr 0 with 7 mantissa bits.
Stream1             DEBUG      Comp Attr 0 with 15 mantissa bits.
Stream1             DEBUG  Added object 2101,"McEventInfo"
Stream1             DEBUG addItemObjects(9102,"MyHits") called
Stream1             DEBUG            Key:MyHits
Stream1             DEBUG      Comp Attr 0 with 7 mantissa bits.
Stream1             DEBUG      Comp Attr 0 with 15 mantissa bits.
Stream1             DEBUG  Added object 9102,"MyHits"
Stream1             DEBUG addItemObjects(9102,"PetersHits") called
Stream1             DEBUG            Key:PetersHits
Stream1             DEBUG      Comp Attr 0 with 7 mantissa bits.
Stream1             DEBUG      Comp Attr 0 with 15 mantissa bits.
Stream1             DEBUG  Collected objects:
Stream1             DEBUG  Object/count: EventInfo_McEventInfo, 18
Stream1             DEBUG  Object/count: ExampleHitContainer_MyHits, 18
Stream1             DEBUG connectOutput done for SimplePoolFile1.root
Stream2             DEBUG addItemObjects(2101,"*") called
Stream2             DEBUG            Key:*
Stream2             DEBUG      Comp Attr 0 with 7 mantissa bits.
Stream2             DEBUG      Comp Attr 0 with 15 mantissa bits.
Stream2             DEBUG  Added object 2101,"McEventInfo"
Stream2             DEBUG addItemObjects(9102,"*") called
Stream2             DEBUG            Key:*
Stream2             DEBUG      Comp Attr 0 with 7 mantissa bits.
Stream2             DEBUG      Comp Attr 0 with 15 mantissa bits.
Stream2             DEBUG  Collected objects:
Stream2             DEBUG  Object/count: EventInfo_McEventInfo, 18
Stream2             DEBUG connectOutput done for SimplePoolFile2.root
AthenaEventLoopMgr   INFO   ===>>>  done processing event #17, run #1 18 events processed so far  <<<===
AthenaEventLoopMgr   INFO   ===>>>  start processing event #18, run #1 18 events processed so far  <<<===
WriteData           DEBUG in execute()
WriteData            INFO EventInfo event: 18  run: 1
WriteData            INFO registered all data
WriteTag             INFO EventInfo event: 18  run: 1
WriteTag             INFO registered all data
MagicWriteTag        INFO EventInfo event: 18  run: 1
MagicWriteTag        INFO registered all data
EventInfoTagBui...   INFO No input attribute list
Stream1             DEBUG addItemObjects(2101,"*") called
Stream1             DEBUG            Key:*
Stream1             DEBUG      Comp Attr 0 with 7 mantissa bits.
Stream1             DEBUG      Comp Attr 0 with 15 mantissa bits.
Stream1             DEBUG  Added object 2101,"McEventInfo"
Stream1             DEBUG addItemObjects(9102,"MyHits") called
Stream1             DEBUG            Key:MyHits
Stream1             DEBUG      Comp Attr 0 with 7 mantissa bits.
Stream1             DEBUG      Comp Attr 0 with 15 mantissa bits.
Stream1             DEBUG  Added object 9102,"MyHits"
Stream1             DEBUG addItemObjects(9102,"PetersHits") called
Stream1             DEBUG            Key:PetersHits
Stream1             DEBUG      Comp Attr 0 with 7 mantissa bits.
Stream1             DEBUG      Comp Attr 0 with 15 mantissa bits.
Stream1             DEBUG  Collected objects:
Stream1             DEBUG  Object/count: EventInfo_McEventInfo, 19
Stream1             DEBUG  Object/count: ExampleHitContainer_MyHits, 19
Stream1             DEBUG connectOutput done for SimplePoolFile1.root
Stream2             DEBUG addItemObjects(2101,"*") called
Stream2             DEBUG            Key:*
Stream2             DEBUG      Comp Attr 0 with 7 mantissa bits.
Stream2             DEBUG      Comp Attr 0 with 15 mantissa bits.
Stream2             DEBUG  Added object 2101,"McEventInfo"
Stream2             DEBUG addItemObjects(9102,"*") called
Stream2             DEBUG            Key:*
Stream2             DEBUG      Comp Attr 0 with 7 mantissa bits.
Stream2             DEBUG      Comp Attr 0 with 15 mantissa bits.
Stream2             DEBUG  Collected objects:
Stream2             DEBUG  Object/count: EventInfo_McEventInfo, 19
Stream2             DEBUG connectOutput done for SimplePoolFile2.root
AthenaEventLoopMgr   INFO   ===>>>  done processing event #18, run #1 19 events processed so far  <<<===
AthenaEventLoopMgr   INFO   ===>>>  start processing event #19, run #1 19 events processed so far  <<<===
WriteData           DEBUG in execute()
WriteData            INFO EventInfo event: 19  run: 1
WriteData            INFO registered all data
WriteTag             INFO EventInfo event: 19  run: 1
WriteTag             INFO registered all data
MagicWriteTag        INFO EventInfo event: 19  run: 1
MagicWriteTag        INFO registered all data
EventInfoTagBui...   INFO No input attribute list
Stream1             DEBUG addItemObjects(2101,"*") called
Stream1             DEBUG            Key:*
Stream1             DEBUG      Comp Attr 0 with 7 mantissa bits.
Stream1             DEBUG      Comp Attr 0 with 15 mantissa bits.
Stream1             DEBUG  Added object 2101,"McEventInfo"
Stream1             DEBUG addItemObjects(9102,"MyHits") called
Stream1             DEBUG            Key:MyHits
Stream1             DEBUG      Comp Attr 0 with 7 mantissa bits.
Stream1             DEBUG      Comp Attr 0 with 15 mantissa bits.
Stream1             DEBUG  Added object 9102,"MyHits"
Stream1             DEBUG addItemObjects(9102,"PetersHits") called
Stream1             DEBUG            Key:PetersHits
Stream1             DEBUG      Comp Attr 0 with 7 mantissa bits.
Stream1             DEBUG      Comp Attr 0 with 15 mantissa bits.
Stream1             DEBUG  Collected objects:
Stream1             DEBUG  Object/count: EventInfo_McEventInfo, 20
Stream1             DEBUG  Object/count: ExampleHitContainer_MyHits, 20
Stream1             DEBUG connectOutput done for SimplePoolFile1.root
Stream2             DEBUG addItemObjects(2101,"*") called
Stream2             DEBUG            Key:*
Stream2             DEBUG      Comp Attr 0 with 7 mantissa bits.
Stream2             DEBUG      Comp Attr 0 with 15 mantissa bits.
Stream2             DEBUG  Added object 2101,"McEventInfo"
Stream2             DEBUG addItemObjects(9102,"*") called
Stream2             DEBUG            Key:*
Stream2             DEBUG      Comp Attr 0 with 7 mantissa bits.
Stream2             DEBUG      Comp Attr 0 with 15 mantissa bits.
Stream2             DEBUG  Collected objects:
Stream2             DEBUG  Object/count: EventInfo_McEventInfo, 20
Stream2             DEBUG connectOutput done for SimplePoolFile2.root
AthenaEventLoopMgr   INFO   ===>>>  done processing event #19, run #1 20 events processed so far  <<<===
Stream1             DEBUG AthenaOutputStream Stream1 ::stop()
Stream2             DEBUG AthenaOutputStream Stream2 ::stop()
Stream1             DEBUG slot 0  handle() incident type: MetaDataStop
Stream1             DEBUG metadataItemList: [EventStreamInfo#Stream1, IOVMetaDataContainer#*]
Stream1             DEBUG addItemObjects(167728019,"Stream1") called
Stream1             DEBUG            Key:Stream1
Stream1             DEBUG      Comp Attr 0 with 7 mantissa bits.
Stream1             DEBUG      Comp Attr 0 with 15 mantissa bits.
Stream1             DEBUG  Added object 167728019,"Stream1"
Stream1             DEBUG addItemObjects(1316383046,"*") called
Stream1             DEBUG            Key:*
Stream1             DEBUG      Comp Attr 0 with 7 mantissa bits.
Stream1             DEBUG      Comp Attr 0 with 15 mantissa bits.
Stream1             DEBUG connectOutput done for SimplePoolFile1.root
StorageSvc           INFO Building shape according to reflection information using shape ID for:
StorageSvc           INFO EventStreamInfo_p3 [????]
SimplePoolFile1...  DEBUG --> Access   DbContainer  CREA/UPDA [ROOT_Tree] MetaData(EventStreamInfo_p3/Stream1)
MetaData(EventS...  DEBUG Opening
MetaData(EventS...  DEBUG    attributes# = 1
MetaData(EventS...  DEBUG Branch container 'EventStreamInfo_p3_Stream1'
MetaData(EventS...  DEBUG Opened container MetaData(EventStreamInfo_p3/Stream1) of type ROOT_Tree
SimplePoolFile1...  DEBUG --->Adding Assoc :????/MetaData(EventStreamInfo_p3/Stream1) [20?]  (b , ffffffff)
SimplePoolFile1...  DEBUG ---->ClassID:????
SimplePoolFile1...  DEBUG --->Adding Shape[6 , ????]:  [1 Column(s)] 
SimplePoolFile1...  DEBUG ---->Class:EventStreamInfo_p3
SimplePoolFile1...  DEBUG ---->[0]:EventStreamInfo_p3 Typ:EventStreamInfo_p3 [21] Size:0 Offset:0 #Elements:1
SimplePoolFile1...  DEBUG --> Access   DbContainer  CREA/UPDA [ROOT_Tree] MetaDataHdr(DataHeader)
MetaDataHdr(Dat...  DEBUG Opening
MetaDataHdr(Dat...  DEBUG    attributes# = 1
MetaDataHdr(Dat...  DEBUG Branch container 'DataHeader'
MetaDataHdr(Dat...  DEBUG Opened container MetaDataHdr(DataHeader) of type ROOT_Tree
SimplePoolFile1...  DEBUG --->Adding Assoc :????/MetaDataHdr(DataHeader) [20?]  (c , ffffffff)
SimplePoolFile1...  DEBUG ---->ClassID:????
SimplePoolFile1...  DEBUG --> Access   DbContainer  CREA/UPDA [ROOT_Tree] MetaDataHdrForm(DataHeaderForm)
MetaDataHdrForm...  DEBUG Opening
MetaDataHdrForm...  DEBUG    attributes# = 1
MetaDataHdrForm...  DEBUG Branch container 'DataHeaderForm'
MetaDataHdrForm...  DEBUG Opened container MetaDataHdrForm(DataHeaderForm) of type ROOT_Tree
SimplePoolFile1...  DEBUG --->Adding Assoc :????/MetaDataHdrForm(DataHeaderForm) [20?]  (d , ffffffff)
SimplePoolFile1...  DEBUG ---->ClassID:????
ClassIDSvc           INFO  getRegistryEntries: read 7 CLIDRegistry entries for module ALL
Stream1              INFO Metadata records written: 21
Stream1             DEBUG Leaving incident handler for MetaDataStop
Stream2             DEBUG slot 0  handle() incident type: MetaDataStop
Stream2             DEBUG metadataItemList: [EventStreamInfo#Stream2, IOVMetaDataContainer#*]
Stream2             DEBUG addItemObjects(167728019,"Stream2") called
Stream2             DEBUG            Key:Stream2
Stream2             DEBUG      Comp Attr 0 with 7 mantissa bits.
Stream2             DEBUG      Comp Attr 0 with 15 mantissa bits.
Stream2             DEBUG  Added object 167728019,"Stream2"
Stream2             DEBUG addItemObjects(1316383046,"*") called
Stream2             DEBUG            Key:*
Stream2             DEBUG      Comp Attr 0 with 7 mantissa bits.
Stream2             DEBUG      Comp Attr 0 with 15 mantissa bits.
Stream2             DEBUG connectOutput done for SimplePoolFile2.root
SimplePoolFile2...  DEBUG --> Access   DbContainer  CREA/UPDA [ROOT_Tree] MetaData(EventStreamInfo_p3/Stream2)
MetaData(EventS...  DEBUG Opening
MetaData(EventS...  DEBUG    attributes# = 1
MetaData(EventS...  DEBUG Branch container 'EventStreamInfo_p3_Stream2'
MetaData(EventS...  DEBUG Opened container MetaData(EventStreamInfo_p3/Stream2) of type ROOT_Tree
SimplePoolFile2...  DEBUG --->Adding Assoc :????/MetaData(EventStreamInfo_p3/Stream2) [20?]  (a , ffffffff)
SimplePoolFile2...  DEBUG ---->ClassID:????
SimplePoolFile2...  DEBUG --->Adding Shape[5 , ????]:  [1 Column(s)] 
SimplePoolFile2...  DEBUG ---->Class:EventStreamInfo_p3
SimplePoolFile2...  DEBUG ---->[0]:EventStreamInfo_p3 Typ:EventStreamInfo_p3 [21] Size:0 Offset:0 #Elements:1
SimplePoolFile2...  DEBUG --> Access   DbContainer  CREA/UPDA [ROOT_Tree] MetaDataHdr(DataHeader)
MetaDataHdr(Dat...  DEBUG Opening
MetaDataHdr(Dat...  DEBUG    attributes# = 1
MetaDataHdr(Dat...  DEBUG Branch container 'DataHeader'
MetaDataHdr(Dat...  DEBUG Opened container MetaDataHdr(DataHeader) of type ROOT_Tree
SimplePoolFile2...  DEBUG --->Adding Assoc :????/MetaDataHdr(DataHeader) [20?]  (b , ffffffff)
SimplePoolFile2...  DEBUG ---->ClassID:????
SimplePoolFile2...  DEBUG --> Access   DbContainer  CREA/UPDA [ROOT_Tree] MetaDataHdrForm(DataHeaderForm)
MetaDataHdrForm...  DEBUG Opening
MetaDataHdrForm...  DEBUG    attributes# = 1
MetaDataHdrForm...  DEBUG Branch container 'DataHeaderForm'
MetaDataHdrForm...  DEBUG Opened container MetaDataHdrForm(DataHeaderForm) of type ROOT_Tree
SimplePoolFile2...  DEBUG --->Adding Assoc :????/MetaDataHdrForm(DataHeaderForm) [20?]  (c , ffffffff)
SimplePoolFile2...  DEBUG ---->ClassID:????
Stream2              INFO Metadata records written: 21
Stream2             DEBUG Leaving incident handler for MetaDataStop
DbSession            INFO     Open     DbSession    
Domain[ROOT_All]     INFO >   Access   DbDomain     UPDATE    [ROOT_All] 
AthenaPoolCnvSvc    DEBUG setAttribute TREE_MAX_SIZE to 1099511627776L
AthenaPoolCnvSvc    DEBUG setAttribute DEFAULT_SPLITLEVEL to 0
AthenaPoolCnvSvc    DEBUG setAttribute STREAM_MEMBER_WISE to 1
AthenaPoolCnvSvc    DEBUG setAttribute DEFAULT_BUFFERSIZE to 32000
PersistencySvc:...  DEBUG lookupPFN: EmptyPoolFile.root returned FID: '' tech=
PersistencySvc:...  DEBUG registered PFN: EmptyPoolFile.root with FID:????
Domain[ROOT_All]     INFO ->  Access   DbDatabase   CREATE    [ROOT_All] ????
Domain[ROOT_All]     INFO                           EmptyPoolFile.root
EmptyPoolFile.root  DEBUG --> Access   DbContainer  CREATE    [ROOT_All] ##Shapes
##Shapes            DEBUG Opening
##Shapes            DEBUG    attributes# = 1
##Shapes            DEBUG Opened container ##Shapes of type ROOT_Tree
##Shapes            DEBUG No objects passing selection criteria... Container has 0 Entries in total.
EmptyPoolFile.root  DEBUG --> Access   DbContainer  CREATE    [ROOT_All] ##Links
##Links             DEBUG Opening
##Links             DEBUG    attributes# = 1
##Links             DEBUG Opened container ##Links of type ROOT_Tree
##Links             DEBUG No objects passing selection criteria... Container has 0 Entries in total.
EmptyPoolFile.root  DEBUG --> Access   DbContainer  CREATE    [ROOT_All] ##Params
##Params            DEBUG Opening
##Params            DEBUG    attributes# = 1
##Params            DEBUG Opened container ##Params of type ROOT_Tree
EmptyPoolFile.root  DEBUG --->Adding Assoc :????/##Params [200]  (2 , ffffffff)
EmptyPoolFile.root  DEBUG ---->ClassID:????
##Params            DEBUG No objects passing selection criteria... Container has 0 Entries in total.
AthenaPoolCnvSvc    DEBUG setAttribute CONTAINER_SPLITLEVEL to 99 for db: EmptyPoolFile.root and cont: TTree=POOLContainerForm(DataHeaderForm)
EmptyPoolFile.root  DEBUG --> Access   DbContainer  CREA/UPDA [ROOT_Tree] MetaData(EventStreamInfo_p3/Stream3)
MetaData(EventS...  DEBUG Opening
MetaData(EventS...  DEBUG    attributes# = 1
MetaData(EventS...  DEBUG Branch container 'EventStreamInfo_p3_Stream3'
MetaData(EventS...  DEBUG Opened container MetaData(EventStreamInfo_p3/Stream3) of type ROOT_Tree
EmptyPoolFile.root  DEBUG --->Adding Assoc :????/MetaData(EventStreamInfo_p3/Stream3) [20?]  (3 , ffffffff)
EmptyPoolFile.root  DEBUG ---->ClassID:????
EmptyPoolFile.root  DEBUG --->Adding Shape[0 , ????]:  [1 Column(s)] 
EmptyPoolFile.root  DEBUG ---->Class:EventStreamInfo_p3
EmptyPoolFile.root  DEBUG ---->[0]:EventStreamInfo_p3 Typ:EventStreamInfo_p3 [21] Size:0 Offset:0 #Elements:1
EmptyPoolFile.root  DEBUG --> Access   DbContainer  CREA/UPDA [ROOT_Tree] MetaDataHdr(DataHeader)
MetaDataHdr(Dat...  DEBUG Opening
MetaDataHdr(Dat...  DEBUG    attributes# = 1
MetaDataHdr(Dat...  DEBUG Branch container 'DataHeader'
MetaDataHdr(Dat...  DEBUG Opened container MetaDataHdr(DataHeader) of type ROOT_Tree
EmptyPoolFile.root  DEBUG --->Adding Assoc :????/MetaDataHdr(DataHeader) [20?]  (4 , ffffffff)
EmptyPoolFile.root  DEBUG ---->ClassID:????
EmptyPoolFile.root  DEBUG --->Adding Shape[1 , ????]:  [1 Column(s)] 
EmptyPoolFile.root  DEBUG ---->Class:DataHeader_p6
EmptyPoolFile.root  DEBUG ---->[0]:DataHeader_p6 Typ:DataHeader_p6 [21] Size:0 Offset:0 #Elements:1
EmptyPoolFile.root  DEBUG --> Access   DbContainer  CREA/UPDA [ROOT_Tree] MetaDataHdrForm(DataHeaderForm)
MetaDataHdrForm...  DEBUG Opening
MetaDataHdrForm...  DEBUG    attributes# = 1
MetaDataHdrForm...  DEBUG Branch container 'DataHeaderForm'
MetaDataHdrForm...  DEBUG Opened container MetaDataHdrForm(DataHeaderForm) of type ROOT_Tree
EmptyPoolFile.root  DEBUG --->Adding Assoc :????/MetaDataHdrForm(DataHeaderForm) [20?]  (5 , ffffffff)
EmptyPoolFile.root  DEBUG ---->ClassID:????
EmptyPoolFile.root  DEBUG --->Adding Shape[2 , ????]:  [1 Column(s)] 
EmptyPoolFile.root  DEBUG ---->Class:DataHeaderForm_p6
EmptyPoolFile.root  DEBUG ---->[0]:DataHeaderForm_p6 Typ:DataHeaderForm_p6 [21] Size:0 Offset:0 #Elements:1
PoolSvc             DEBUG Failed to get ContainerHandle to set POOL property.
AthenaPoolCnvSvc    DEBUG setAttribute failed for BRANCH_BASKET_SIZE to 256000 for db: EmptyPoolFile.root and cont: POOLContainer(DataHeader)
PoolSvc             DEBUG Failed to get ContainerHandle to set POOL property.
AthenaPoolCnvSvc    DEBUG setAttribute failed for BRANCH_BASKET_SIZE to 1024000 for db: EmptyPoolFile.root and cont: POOLContainerForm(DataHeaderForm)
AthenaPoolCnvSvc    DEBUG commitOutput failed process POOL container attributes.
Stream3              INFO Metadata records written: 1
Domain[ROOT_All]     INFO >   Deaccess DbDomain     READ      [ROOT_All] 
Domain[ROOT_All]     INFO ->  Deaccess DbDatabase   CREATE    [ROOT_All] ????
Domain[ROOT_All]     INFO >   Deaccess DbDomain     UPDATE    [ROOT_All] 
Domain[ROOT_All]     INFO ->  Deaccess DbDatabase   CREATE    [ROOT_All] ????
Domain[ROOT_All]     INFO >   Deaccess DbDomain     UPDATE    [ROOT_All] 
Domain[ROOT_All]     INFO ->  Deaccess DbDatabase   CREATE    [ROOT_All] ????
Domain[ROOT_All]     INFO >   Deaccess DbDomain     UPDATE    [ROOT_All] 
ApplicationMgr       INFO Application Manager Stopped successfully
IncidentProcAlg1     INFO Finalize
WriteData            INFO in finalize()
WriteTag             INFO in finalize()
MagicWriteTag        INFO in finalize()
WriteData           DEBUG Calling destructor
IncidentProcAlg2     INFO Finalize
Stream1             DEBUG finalize: Optimize output
Stream1             DEBUG finalize: end optimize output
Stream2             DEBUG finalize: Optimize output
Stream2             DEBUG finalize: end optimize output
EventSelector        INFO finalize
DecisionSvc          INFO Finalized successfully.
XMLCatalog           INFO File 'Catalog1.xml' does not exist. New file created.
AthDictLoaderSvc     INFO in finalize...
ToolSvc              INFO Removing all tools created by ToolSvc
*****Chrono*****     INFO ****************************************************************************************************
*****Chrono*****     INFO  The Final CPU consumption ( Chrono ) Table (ordered)
*****Chrono*****     INFO ****************************************************************************************************
commitOutput         INFO Time User   : Tot=   10 [ms] Ave/Min/Max=   0.233(+-    1.51)/       0/      10 [ms] #= 43
cRepR_ALL            INFO Time User   : Tot=   20 [ms] Ave/Min/Max=  0.0735(+-   0.854)/       0/      10 [ms] #=272
cRep_ALL             INFO Time User   : Tot=   50 [ms] Ave/Min/Max=   0.472(+-    2.88)/       0/      20 [ms] #=106
fRep_ALL             INFO Time User   : Tot=   80 [ms] Ave/Min/Max=   0.755(+-    2.98)/       0/      20 [ms] #=106
ChronoStatSvc        INFO Time User   : Tot= 0.51  [s]  #=  1
*****Chrono*****     INFO ****************************************************************************************************
ChronoStatSvc.f...   INFO  Service finalized successfully 
ApplicationMgr       INFO Application Manager Finalized successfully
ApplicationMgr       INFO Application Manager Terminated successfully
Athena               INFO leaving with code 0: "successful run"
